{
  "id": "5e667e015bfbbe055e92e55e",
  "created": "2020-01-09T19:25:22.083Z",
  "createdBy": "spike.burton",
  "lastUpdated": "2020-03-23T19:26:04.741Z",
  "lastUpdatedBy": "zack.strulovitch",
  "name": "IAP Artifacts ASA Firewall Object Group Update",
  "description": null,
  "struct": {
    "type": "object",
    "description": "",
    "items": [
      {
        "nodeId": "a5430995-942b-4521-9702-1c21caf026fd",
        "type": "boolean",
        "title": "Zero Touch",
        "description": "Check this box to execute this workflow in Zero Touch mode. (no confirmation or any manual task will be displayed)",
        "default": true
      },
      {
        "nodeId": "a269e233-0d0e-4f81-96ff-29315ce5a9fc",
        "type": "string",
        "title": "ASA Firewall Device",
        "description": "[host]",
        "placeholder": "Please select your firewall device",
        "required": false,
        "enum": [
          {
            "id": "4494922d-4e6b-4222-9e23-74ba47c441a9",
            "value": "ASA-1"
          },
          {
            "id": "6607e6e4-5562-41ef-b4af-f6000e87f192",
            "value": "ASA-2"
          },
          {
            "id": "9c5c181b-d2cf-44cc-bf76-2ae8d0746cf1",
            "value": null
          }
        ],
        "binding": true,
        "rel": "collection",
        "targetPointer": "/enum",
        "href": "configuration_manager/devices",
        "base": "/",
        "method": "POST",
        "body": {
          "options": {
            "filter": {
              "name": ""
            },
            "start": 0,
            "limit": 100,
            "sort": [
              {
                "name": 1
              }
            ],
            "order": "ascending"
          }
        },
        "sourcePointer": "/list",
        "sourceKeyPointer": "/name"
      },
      {
        "nodeId": "962023a2-1f9c-4632-b0f3-825886c39979",
        "type": "string",
        "title": "Object Group Name",
        "description": "object group name, something to identify our object group appropriately.",
        "placeholder": "ex: denied",
        "required": false
      },
      {
        "nodeId": "91b6cc1e-e993-48b9-8c17-ca2e4a824ca1",
        "type": "array",
        "description": "",
        "items": [
          {
            "nodeId": "a17133f8-e66c-4e39-a593-e4430f376862",
            "type": "string",
            "title": "IP Address (v4)",
            "description": "",
            "placeholder": "",
            "required": true,
            "pattern": "^(?:[0-9]{1,3}\\.){3}[0-9]{1,3}$"
          }
        ],
        "title": "Host List"
      }
    ]
  },
  "schema": {
    "title": "IAP Artifacts ASA Firewall Object Group Update",
    "description": "",
    "type": "object",
    "required": [],
    "properties": {
      "zeroTouch": {
        "type": "boolean",
        "title": "Zero Touch",
        "description": "Check this box to execute this workflow in Zero Touch mode. (no confirmation or any manual task will be displayed)",
        "default": true
      },
      "asaFirewallDevice": {
        "type": "string",
        "title": "ASA Firewall Device",
        "description": "[host]",
        "enum": []
      },
      "objectGroupName": {
        "type": "string",
        "title": "Object Group Name",
        "description": "object group name, something to identify our object group appropriately."
      },
      "hostList": {
        "type": "array",
        "title": "Host List",
        "description": "",
        "items": {
          "type": "object",
          "required": [
            "ipAddressV4"
          ],
          "properties": {
            "ipAddressV4": {
              "type": "string",
              "title": "IP Address (v4)",
              "description": "",
              "pattern": "^(?:[0-9]{1,3}\\.){3}[0-9]{1,3}$"
            }
          }
        }
      }
    }
  },
  "uiSchema": {
    "asaFirewallDevice": {
      "ui:placeholder": "Please select your firewall device"
    },
    "objectGroupName": {
      "ui:placeholder": "ex: denied"
    },
    "hostList": {
      "items": {}
    }
  },
  "bindingSchema": {
    "properties": {
      "asaFirewallDevice": {
        "binding:method": "POST",
        "binding:link": {
          "$ref": "/links",
          "rel": "collection"
        },
        "binding:body": {
          "options": {
            "filter": {
              "name": ""
            },
            "start": 0,
            "limit": 100,
            "sort": [
              {
                "name": 1
              }
            ],
            "order": "ascending"
          }
        },
        "binding:source": {
          "propertyPointer": "/list",
          "keyPointer": "/name"
        },
        "binding:target": {
          "propertyPointer": "/enum"
        },
        "binding:hyperSchema": {
          "type": "object",
          "base": "/",
          "links": [
            {
              "rel": "collection",
              "href": "configuration_manager/devices",
              "targetMediaType": "application/json",
              "targetSchema": {
                "$ref": "#"
              }
            }
          ]
        }
      },
      "hostList": {
        "items": {
          "properties": {}
        }
      }
    }
  },
  "validationSchema": {
    "hostList": {}
  },
  "version": "2019.3"
}